D:\AntWalk\Java\BankSpring\src\main\java\org\antwalk\interfaces\Account.java
D:\AntWalk\Java\BankSpring\src\main\java\org\antwalk\Accounts\Savings.java
D:\AntWalk\Java\BankSpring\src\main\java\org\antwalk\Accounts\Current.java
D:\AntWalk\Java\BankSpring\src\main\java\org\antwalk\Customer.java
